<!-- I got this icon from the Empatica website -->

<svg xmlns="http://www.w3.org/2000/svg" xmlns:xlink="http://www.w3.org/1999/xlink" width="27px" height="27px" viewBox="0 0 20 20" version="1.1">
    <!-- Generator: Sketch 48.1 (47250) - http://www.bohemiancoding.com/sketch -->
    <title>Group 3</title>
    <desc>Created with Sketch.</desc>
    <defs/>
    <g id="Mobile-Navigation-Home" stroke="none" stroke-width="1" fill="none" fill-rule="evenodd" transform="translate(-315.000000, -30.000000)">
        <g id="Group-3" transform="translate(325.000000, 40.000000) rotate(-180.000000) translate(-325.000000, -40.000000) translate(315.000000, 30.000000)">
            <polygon id="Path-2" fill="#333" fill-rule="nonzero" points="5.35485179 12.8891783 4.64514821 12.1846779 10 6.79027721 15.3548518 12.1846779 14.6451482 12.8891783 10 8.20972279"/>
            <rect id="Rectangle-3" stroke="#333" x="0.5" y="0.5" width="19" height="19" rx="9.5"/>
        </g>
    </g>
</svg>